Linya Huang: VAST Challenge 2021 -Mini-Challenge 3
…
data$timestamp <- ymd_hms(data$`date(yyyyMMddHHmmss)`)
data$time_30min = cut(data$timestamp, breaks="30 min")
data$id <- seq.int(nrow(data))

data_subset=subset(data,select=c("time_30min","cleaned"))

usenet_words<-data_subset%>%
  group_by(time_30min) %>% 
  unnest_tokens(word, cleaned) %>%
  count(time_30min,word, sort = TRUE)

usenet_words[order(usenet_words$time_30min),]

# A tibble: 6,975 x 3
# Groups:   time_30min [10]
   time_30min          word       n
   <fct>               <chr>  <int>
 1 2014-01-23 17:00:00 pok       98
 2 2014-01-23 17:00:00 rally     76
 3 2014-01-23 17:00:00 people    44
 4 2014-01-23 17:00:00 park      40
 5 2014-01-23 17:00:00 jakab     37
 6 2014-01-23 17:00:00 lucio     35
 7 2014-01-23 17:00:00 police    35
 8 2014-01-23 17:00:00 can       34
 9 2014-01-23 17:00:00 abila     30
10 2014-01-23 17:00:00 sylvia    30
# ... with 6,965 more rows
…
