VAST Challenge 2021 -Mini-Challenge 3
…
data$timestamp <- ymd_hms(data$`date(yyyyMMddHHmmss)`)
data$time_30min = cut(data$timestamp, breaks="30 min")
data$id <- seq.int(nrow(data))

data_subset=subset(data,select=c("time_30min","cleaned"))

usenet_words<-data_subset%>%
  group_by(time_30min) %>% 
  unnest_tokens(word, cleaned) %>%
  count(time_30min,word, sort = TRUE)

usenet_words[order(usenet_words$time_30min),]

# A tibble: 8,582 x 3
# Groups:   time_30min [10]
   time_30min          word           n
   <fct>               <chr>      <int>
 1 2014-01-23 17:00:00 pokrally     192
 2 2014-01-23 17:00:00 pok          157
 3 2014-01-23 17:00:00 rt            99
 4 2014-01-23 17:00:00 rally         96
 5 2014-01-23 17:00:00 hi            78
 6 2014-01-23 17:00:00 abilapost     76
 7 2014-01-23 17:00:00 kronosstar    71
 8 2014-01-23 17:00:00 abila         59
 9 2014-01-23 17:00:00 people        44
10 2014-01-23 17:00:00 park          41
# ... with 8,572 more rows
…
As shown above, the meaningful event are in topic 1 - police relatedfire at dancing dolphin,topic 2- hostage & injure, topic 7 - van related, topic 10 police and scene related. While for other key words in the topic, we cann

topic_gamma <- tidy(topic, matrix = "gamma")
topic_gamma <- topic_gamma %>% 
  group_by(document) %>% 
  slice(which.max(gamma))

topic_gamma$document<-as.numeric(topic_gamma$document)
topic_gamma[order(topic_gamma$document),]

# A tibble: 4,061 x 3
# Groups:   document [4,061]
   document topic gamma
      <dbl> <int> <dbl>
 1        1     2 0.113
 2        2     7 0.138
 3        3     7 0.153
 4        4     7 0.238
 5        5     7 0.258
 6        6     7 0.145
 7        7     3 0.161
 8        8     7 0.127
 9        9     7 0.190
10       10     7 0.127
# ... with 4,051 more rows
…
